         attenuation,              rx_pwr
              0.0000,            -14.9160
              0.5000,            -15.3910
              1.0000,            -15.9030
              1.5000,            -16.4070
              2.0000,            -16.9150
              2.5000,            -17.4170
              3.0000,            -17.9170
              3.5000,            -18.4320
              4.0000,            -18.9330
              4.5000,            -19.4390
              5.0000,            -19.9330
              5.5000,            -20.4380
              6.0000,            -20.9420
              6.5000,            -21.4370
              7.0000,            -21.9450
              7.5000,            -22.4480
              8.0000,            -22.9440
              8.5000,            -23.4410
              9.0000,            -23.9340
              9.5000,            -24.4340
             10.0000,            -24.9320
             10.5000,            -25.4390
             11.0000,            -25.9430
             11.5000,            -26.4430
             12.0000,            -26.9510
             12.5000,            -27.4400
             13.0000,            -27.9440
             13.5000,            -28.4350
             14.0000,            -28.9340
             14.5000,            -29.4280
             15.0000,            -29.9170
             15.5000,            -30.4190
             16.0000,            -30.9190
             16.5000,            -31.4170
             17.0000,            -31.9070
             17.5000,            -32.4080
             18.0000,            -32.8970
             18.5000,            -33.3920
             19.0000,            -33.8800
             19.5000,            -34.3750
             20.0000,            -34.8700
             20.5000,            -35.3670
             21.0000,            -35.8740
             21.5000,            -36.3670
             22.0000,            -36.8740
             22.5000,            -37.3670
             23.0000,            -37.8740